{
  "project_info": {
    "project_number": "689274046887",
    "project_id": "my-project-1520584868629"
  },
  "client": [
    {
      "client_info": {
        "mobilesdk_app_id": "1:689274046887:android:6d28824a40ffe904",
        "android_client_info": {
          "package_name": "com.example.hpz400.greenshiplogin"
        }
      },
      "oauth_client": [
        {
          "client_id": "689274046887-ek98dp1jkelgtb0n4i5sc5cu3qmd8tke.apps.googleusercontent.com",
          "client_type": 1,
          "android_info": {
            "package_name": "com.example.hpz400.greenshiplogin",
            "certificate_hash": "24a842b6856711628f473d6b11d6103f832b1d15"
          }
        },
        {
          "client_id": "689274046887-4p6o4bso3sprtjn2c4kboph3t4hecdqa.apps.googleusercontent.com",
          "client_type": 3
        }
      ],
      "api_key": [
        {
          "current_key": "AIzaSyAgzkrvtmJoGWP7MzY6ZEpUnBIO7sgODIw"
        }
      ],
      "services": {
        "analytics_service": {
          "status": 1
        },
        "appinvite_service": {
          "status": 1,
          "other_platform_oauth_client": []
        },
        "ads_service": {
          "status": 1
        }
      }
    }
  ],
  "configuration_version": "1"
}